<?xml version="1.0" encoding="utf-8"?>
<svg version="1.1" id="Capa_1"
	 xmlns="http://www.w3.org/2000/svg" xmlns:xlink="http://www.w3.org/1999/xlink" x="0px" y="0px" width="1169.69px"
	 height="434.483px" viewBox="0 0 1169.69 434.483" enable-background="new 0 0 1169.69 434.483" xml:space="preserve">
	<g>
		<path fill="#FFFFFF" d="M294.731,257.059c-5.577,20.786-15.785,40.087-29.745,56.48c0.068-0.201,0.168-0.439,0.203-0.64
			c0.539-1.452,1.048-2.908,1.52-4.361c0.913-2.875,1.725-5.78,2.4-8.688c0.035-0.069,0.035-0.168,0.068-0.271
			c0.238-0.98,0.474-1.994,0.642-3.007c0.17-0.677,0.305-1.353,0.406-1.994c0.203-1.05,0.406-2.132,0.574-3.212
			c0.203-1.152,0.373-2.334,0.508-3.482c0.236-1.657,0.404-3.314,0.54-4.968c0.102-1.152,0.203-2.301,0.238-3.416
			c0.068-0.809,0.101-1.654,0.135-2.466c0.811-20.449-3.685-41.1-13.623-59.685c0-0.036-0.033-0.036-0.033-0.069
			c-5.409-10.108-12.304-19.406-20.484-27.623l-26.434-26.434c-0.033-0.033-0.033-0.033-0.068-0.069l-52.797-52.766
			c-14.029-14.026-21.397-33.462-20.281-53.271c0.068-1.149,0.168-2.298,0.304-3.446c0.101-0.984,0.203-1.961,0.371-2.908
			c0.135-1.047,0.338-2.096,0.541-3.146c0.203-1.01,0.406-2.06,0.677-3.073c0.201-0.914,0.472-1.825,0.71-2.736
			c0.201-0.644,0.404-1.288,0.607-1.961c0.238-0.746,0.507-1.525,0.777-2.264c1.893-5.374,4.496-10.481,7.708-15.247
			c0.507-0.776,1.048-1.522,1.588-2.264c0.44-0.644,0.913-1.251,1.419-1.892c0.441-0.574,0.88-1.115,1.353-1.657
			c0.236-0.304,0.472-0.607,0.81-0.911l101.947,101.947C293.65,153.894,307.981,207.373,294.731,257.059z"/>
		<path fill="#FFFFFF" d="M262.112,277.103c-0.101,2.634-0.338,5.239-0.642,7.843c-0.17,1.383-0.338,2.77-0.542,4.156
			c-0.236,1.383-0.474,2.77-0.743,4.123c-0.541,2.773-1.183,5.509-1.928,8.18c-0.371,1.353-0.777,2.707-1.217,4.02
			c-0.946,2.978-2.028,5.915-3.279,8.827c-0.404,0.977-0.845,1.961-1.284,2.938c-0.507,1.116-1.013,2.232-1.588,3.314
			c-0.406,0.845-0.812,1.657-1.286,2.469c-1.52,2.905-3.21,5.744-5.035,8.484c-0.609,0.977-1.284,1.924-1.961,2.872
			c-0.136,0.238-0.304,0.439-0.439,0.641c0,0-0.035,0-0.035,0.033c-24.843,18.763-55.638,29.072-86.937,29.072
			c-31.504,0-62.601-10.481-87.547-29.54c-5.07-3.889-9.972-8.18-14.569-12.745c-17.949-17.947-30.862-40.328-37.385-64.729
			c-12.27-45.9-0.98-94.985,29.441-130.854c-0.068,0.106-0.102,0.238-0.136,0.376c-1.149,3.073-2.129,6.186-3.009,9.329
			c-0.033,0.066-0.033,0.099-0.033,0.168c-0.474,1.654-0.88,3.311-1.251,5.001c-0.338,1.452-0.642,2.941-0.913,4.397
			c-0.101,0.472-0.168,0.977-0.271,1.485c-0.236,1.321-0.439,2.638-0.607,3.955c-0.034,0.204-0.034,0.373-0.068,0.574
			c-0.238,1.624-0.406,3.248-0.541,4.869c-0.135,1.555-0.27,3.073-0.338,4.631c0,0.508-0.033,0.977-0.068,1.486
			c-0.033,1.386-0.068,2.806-0.068,4.192c0,18.829,4.597,37.829,13.994,55.41c5.442,10.134,12.337,19.429,20.517,27.609
			l26.434,26.431c15.075,15.079,35.086,23.358,56.415,23.358c21.329,0,41.373-8.279,56.448-23.358
			c21.126-21.126,27.921-51.234,20.349-78.144c0.642,0.607,1.218,1.251,1.826,1.892c0.609,0.677,1.218,1.32,1.825,2.03
			c0.642,0.71,1.251,1.452,1.86,2.195c0.642,0.746,1.249,1.522,1.892,2.301c1.421,1.825,2.806,3.684,4.091,5.611
			c0.607,0.845,1.149,1.69,1.69,2.535c1.588,2.436,3.042,4.938,4.427,7.506l0.035,0.033
			C258.799,239.208,262.924,258.274,262.112,277.103z"/>
		<path fill="#FFFFFF" d="M98.782,163.223c-21.126,21.162-27.921,51.284-20.349,78.183c-0.068-0.066-0.136-0.168-0.203-0.238
			c-0.812-0.812-1.555-1.621-2.299-2.433c-0.068-0.069-0.135-0.135-0.168-0.201c-0.812-0.878-1.622-1.793-2.367-2.707
			c-0.81-0.944-1.622-1.925-2.365-2.905c-0.777-0.98-1.556-1.961-2.266-2.974c-0.743-1.013-1.487-2.027-2.162-3.04
			c-2.131-3.106-4.057-6.282-5.815-9.596c-22.039-41.245-14.331-93.1,18.727-126.189l51.751-51.752
			c-0.068,0.27-0.168,0.574-0.203,0.845c-0.304,1.083-0.574,2.165-0.811,3.245c-0.034,0.069-0.034,0.136-0.034,0.201
			c-0.338,1.353-0.609,2.74-0.845,4.126v0.135c-0.203,1.08-0.338,2.162-0.474,3.278c-0.236,1.756-0.404,3.552-0.507,5.341
			c-0.1,1.522-0.135,3.077-0.135,4.595c0,1.32,0.035,2.641,0.102,3.958c0.068,1.522,0.203,3.04,0.371,4.529
			c0.068,0.947,0.203,1.891,0.338,2.839c0.236,1.69,0.54,3.38,0.913,5.037c0.168,0.878,0.371,1.759,0.574,2.638
			c0.068,0.304,0.135,0.574,0.236,0.845c0.238,1.013,0.507,1.994,0.812,2.971c0.068,0.271,0.168,0.542,0.236,0.779
			c0.236,0.746,0.474,1.489,0.744,2.231c0.203,0.607,0.404,1.182,0.607,1.756c0.17,0.508,0.373,1.017,0.574,1.489
			c0.271,0.71,0.541,1.387,0.845,2.096c0.913,2.165,1.928,4.291,3.044,6.354c0.404,0.812,0.845,1.555,1.284,2.334
			c2.636,4.562,5.712,8.89,9.228,12.877L98.782,163.223z"/>
		<g>
			<g>
				<path fill="#FFFFFF" d="M354.008,65.151c0-5.295,2.58-7.945,7.724-7.945h53.056c5.177,0,7.755,2.651,7.755,7.945v247.78
					c0,5.186-2.578,7.764-7.755,7.764h-53.056c-5.145,0-7.724-2.578-7.724-7.764V65.151z"/>
				<path fill="#FFFFFF" d="M533.507,65.151c2.108-5.295,5.721-7.945,10.898-7.945h43.437c5.042,0,8.616,2.651,10.715,7.945
					l96.827,247.78c2.094,5.186,0.416,7.764-4.991,7.764h-52.85c-5.296,0-8.805-2.578-10.54-7.764l-12.375-34.726h-96.854
					l-11.982,34.726c-1.72,5.186-5.305,7.764-10.711,7.764h-52.858c-5.295,0-6.958-2.578-4.998-7.764L533.507,65.151z
					 M565.657,140.529l-27.906,80.577H594.3L565.657,140.529z"/>
				<path fill="#FFFFFF" d="M854.01,244.113c1.211-0.555,2.388-0.832,3.502-0.832c2.095,0,3.818,1.05,5.189,3.129l29.01,42.702
					c1.954,2.456,2.738,4.525,2.286,6.189c-0.419,1.664-1.976,3.407-4.694,5.268c-9.36,6.655-20.397,12.309-33.075,16.993
					c-12.692,4.674-27.111,7.015-43.239,7.015c-18.844,0-36.522-3.558-53.025-10.698c-16.521-7.16-30.925-16.891-43.236-29.203
					c-12.311-12.319-22.055-26.728-29.217-43.236c-7.123-16.508-10.708-34.181-10.708-53.033c0-18.858,3.585-36.492,10.708-52.951
					c7.161-16.445,16.906-30.765,29.217-42.965c12.311-12.187,26.715-21.793,43.236-28.824c16.503-7.015,34.181-10.52,53.025-10.52
					c8.005,0,15.602,0.65,22.823,1.941c7.198,1.287,14.011,3.05,20.417,5.252c6.405,2.235,12.435,4.839,18.102,7.863
					c5.67,3.024,10.898,6.245,15.711,9.705c1.845,1.36,2.923,2.925,3.231,4.714c0.306,1.789,0.028,3.341-0.823,4.7l-30.866,44.167
					c-1.216,1.723-2.832,2.581-4.778,2.581c-2.131,0-4.159-0.789-6.132-2.383c-5.897-4.7-11.804-8.081-17.738-10.18
					c-5.905-2.09-12.549-3.129-19.948-3.129c-9.863,0-18.974,1.815-27.357,5.453c-8.366,3.628-15.615,8.576-21.696,14.867
					c-6.107,6.285-10.888,13.673-14.323,22.173c-3.463,8.497-5.185,17.677-5.185,27.537c0,9.866,1.723,19.096,5.185,27.728
					c3.435,8.619,8.216,16.082,14.323,22.433c6.081,6.348,13.329,11.369,21.696,15.072c8.383,3.691,17.494,5.526,27.357,5.526
					c7.526,0,14.405-1.327,20.697-3.961c6.274-2.644,11.765-5.575,16.445-8.794C851.491,245.447,852.79,244.667,854.01,244.113z"/>
				<path fill="#FFFFFF" d="M996.121,65.151c2.103-5.295,5.755-7.945,10.896-7.945h43.446c5.039,0,8.62,2.651,10.726,7.945
					l96.819,247.78c2.06,5.186,0.416,7.764-4.995,7.764h-52.866c-5.291,0-8.794-2.578-10.517-7.764l-12.382-34.726h-96.831
					l-12.014,34.726c-1.735,5.186-5.293,7.764-10.727,7.764H904.84c-5.3,0-6.955-2.578-4.983-7.764L996.121,65.151z
					 M1028.278,140.529l-27.898,80.577h56.532L1028.278,140.529z"/>
			</g>
		</g>
		<g>
			<path fill="#FFFFFF" d="M354.008,371.065c0-0.442,0.119-0.769,0.358-1.013c0.247-0.231,0.536-0.357,0.909-0.357h7.011
				c0.842,0,1.256,0.456,1.256,1.37v38.153h20.583c0.909,0,1.36,0.409,1.36,1.248v6.48c0,0.852-0.451,1.281-1.36,1.281h-28.851
				c-0.847,0-1.268-0.429-1.268-1.281V371.065z"/>
			<path fill="#FFFFFF" d="M414.282,370.956c0.346-0.845,0.881-1.261,1.626-1.261h5.457c0.772,0,1.322,0.416,1.668,1.261
				l18.42,45.877c0.165,0.456,0.165,0.799,0,1.037c-0.193,0.244-0.502,0.356-0.923,0.356h-7.151c-0.776,0-1.312-0.403-1.598-1.182
				l-3.174-7.827h-20.014l-3.138,7.78c-0.14,0.456-0.36,0.773-0.624,0.951c-0.287,0.198-0.619,0.277-0.992,0.277h-7.146
				c-0.433,0-0.734-0.112-0.911-0.356c-0.165-0.238-0.165-0.581,0.028-1.037L414.282,370.956z M418.636,382.252l-6.972,18.519
				h13.849L418.636,382.252z"/>
			<path fill="#FFFFFF" d="M454.306,370.996c0-0.868,0.413-1.301,1.253-1.301h21.072c1.853,0,3.59,0.346,5.204,1.05
				c1.609,0.706,3.024,1.67,4.219,2.879c1.18,1.215,2.122,2.647,2.809,4.298c0.68,1.637,1.009,3.407,1.009,5.324
				c0,1.855-0.306,3.565-0.924,5.106c-0.609,1.532-1.528,2.852-2.788,3.941c0.926,0.604,1.764,1.353,2.497,2.218
				c0.718,0.858,1.333,1.802,1.858,2.826c0.52,1.024,0.928,2.11,1.197,3.268c0.284,1.155,0.416,2.331,0.416,3.542
				c0,1.878-0.358,3.674-1.042,5.371c-0.695,1.69-1.647,3.195-2.842,4.496c-1.197,1.288-2.606,2.324-4.22,3.083
				c-1.606,0.759-3.347,1.129-5.209,1.129h-23.255c-0.84,0-1.253-0.429-1.253-1.281V370.996z M463.841,377.591v11.811h10.263
				c1.916,0,3.443-0.528,4.585-1.581c1.142-1.046,1.723-2.502,1.723-4.347c0-0.882-0.148-1.677-0.44-2.41
				c-0.302-0.733-0.715-1.347-1.266-1.862c-0.551-0.508-1.197-0.911-1.967-1.182c-0.772-0.284-1.627-0.429-2.552-0.429H463.841z
				 M463.841,396.928v13.336h12.384c0.985,0,1.891-0.185,2.661-0.581c0.758-0.386,1.411-0.878,1.926-1.489
				c0.527-0.624,0.924-1.31,1.187-2.083c0.251-0.772,0.383-1.541,0.383-2.314c0-0.974-0.177-1.885-0.52-2.73
				c-0.358-0.825-0.818-1.552-1.391-2.176c-0.579-0.604-1.253-1.079-2.025-1.443c-0.743-0.35-1.53-0.522-2.357-0.522H463.841z"/>
			<path fill="#FFFFFF" d="M506.055,384.246c1.311-3.034,3.104-5.678,5.362-7.936c2.264-2.261,4.919-4.034,7.945-5.331
				c3.02-1.311,6.27-1.971,9.72-1.971c3.444,0,6.694,0.66,9.706,1.971c3.035,1.297,5.668,3.07,7.924,5.331
				c2.248,2.258,4.007,4.902,5.306,7.936c1.292,3.03,1.943,6.275,1.943,9.715c0,3.446-0.65,6.698-1.943,9.715
				c-1.299,3.03-3.058,5.678-5.306,7.922c-2.256,2.251-4.889,4.02-7.924,5.315c-3.012,1.314-6.262,1.961-9.706,1.961
				c-3.45,0-6.7-0.647-9.72-1.961c-3.027-1.294-5.681-3.063-7.945-5.315c-2.258-2.245-4.052-4.892-5.362-7.922
				c-1.304-3.017-1.956-6.269-1.956-9.715C504.099,390.521,504.751,387.276,506.055,384.246z M514.832,400.13
				c0.783,1.934,1.878,3.598,3.256,5.011c1.385,1.433,3.01,2.542,4.869,3.361c1.888,0.805,3.928,1.221,6.125,1.221
				c2.198,0,4.24-0.416,6.116-1.221c1.849-0.819,3.479-1.928,4.862-3.361c1.373-1.413,2.436-3.076,3.207-5.011
				c0.773-1.915,1.157-3.968,1.157-6.17c0-2.195-0.384-4.258-1.157-6.173c-0.771-1.918-1.833-3.594-3.207-5.03
				c-1.383-1.429-3.014-2.542-4.862-3.364c-1.876-0.812-3.918-1.218-6.116-1.218c-2.197,0-4.237,0.406-6.125,1.218
				c-1.858,0.822-3.484,1.934-4.869,3.364c-1.378,1.436-2.474,3.113-3.256,5.03c-0.776,1.915-1.169,3.978-1.169,6.173
				C513.664,396.162,514.056,398.215,514.832,400.13z"/>
			<path fill="#FFFFFF" d="M569.128,371.019c0-0.33,0.109-0.634,0.289-0.891c0.205-0.267,0.528-0.399,0.979-0.399h20.767
				c2.24,0,4.296,0.436,6.199,1.337c1.875,0.881,3.494,2.063,4.859,3.522c1.35,1.492,2.416,3.182,3.187,5.097
				c0.753,1.915,1.127,3.915,1.127,5.968c0,1.363-0.198,2.7-0.594,4.021c-0.4,1.31-0.966,2.561-1.689,3.723
				c-0.751,1.169-1.619,2.248-2.639,3.225c-0.999,0.974-2.118,1.819-3.341,2.548l8.927,17.664c0.147,0.323,0.147,0.634,0,0.938
				c-0.17,0.304-0.462,0.455-0.876,0.455h-8.429c-0.366,0-0.662-0.073-0.867-0.238c-0.219-0.165-0.437-0.462-0.657-0.924
				l-7.779-15.61h-9.928v15.491c0,0.852-0.426,1.281-1.299,1.281h-6.97c-0.837,0-1.268-0.429-1.268-1.281V371.019z
				 M578.665,377.829v15.277h10.183c1.131,0,2.185-0.192,3.166-0.594c0.964-0.396,1.802-0.937,2.505-1.637
				c0.705-0.687,1.273-1.505,1.659-2.426c0.396-0.934,0.606-1.915,0.606-2.961c0-1.05-0.21-2.027-0.606-2.958
				c-0.386-0.931-0.954-1.743-1.659-2.443c-0.703-0.693-1.541-1.241-2.505-1.64c-0.98-0.413-2.035-0.617-3.166-0.617H578.665z"/>
			<path fill="#FFFFFF" d="M636.527,370.956c0.345-0.845,0.88-1.261,1.622-1.261h5.448c0.772,0,1.32,0.416,1.66,1.261
				l18.427,45.877c0.172,0.456,0.172,0.799,0,1.037c-0.193,0.244-0.498,0.356-0.924,0.356h-7.15c-0.771,0-1.314-0.403-1.598-1.182
				l-3.177-7.827h-19.999l-3.129,7.78c-0.165,0.456-0.385,0.773-0.647,0.951c-0.276,0.198-0.604,0.277-0.987,0.277h-7.135
				c-0.449,0-0.746-0.112-0.919-0.356c-0.162-0.238-0.162-0.581,0.017-1.037L636.527,370.956z M640.867,382.252l-6.97,18.519
				h13.856L640.867,382.252z"/>
			<path fill="#FFFFFF" d="M666.3,370.996c0-0.868,0.424-1.301,1.297-1.301h34.936c0.86,0,1.273,0.432,1.273,1.301v6.156
				c0,0.881-0.413,1.324-1.273,1.324h-12.856v38.469c0,0.852-0.424,1.281-1.296,1.281h-7.01c-0.867,0-1.284-0.429-1.284-1.281
				v-38.469h-12.491c-0.873,0-1.297-0.442-1.297-1.324V370.996z"/>
			<path fill="#FFFFFF" d="M714.278,384.246c1.294-3.034,3.085-5.678,5.359-7.936c2.259-2.261,4.913-4.034,7.947-5.331
				c3.015-1.311,6.257-1.971,9.715-1.971c3.444,0,6.678,0.66,9.708,1.971c3.03,1.297,5.664,3.07,7.914,5.331
				c2.256,2.258,4.017,4.902,5.313,7.936c1.288,3.03,1.949,6.275,1.949,9.715c0,3.446-0.662,6.698-1.949,9.715
				c-1.296,3.03-3.057,5.678-5.313,7.922c-2.25,2.251-4.884,4.02-7.914,5.315c-3.03,1.314-6.263,1.961-9.708,1.961
				c-3.458,0-6.7-0.647-9.715-1.961c-3.034-1.294-5.688-3.063-7.947-5.315c-2.275-2.245-4.065-4.892-5.359-7.922
				c-1.309-3.017-1.962-6.269-1.962-9.715C712.316,390.521,712.969,387.276,714.278,384.246z M723.056,400.13
				c0.783,1.934,1.854,3.598,3.25,5.011c1.378,1.433,3.015,2.542,4.879,3.361c1.872,0.805,3.908,1.221,6.115,1.221
				c2.19,0,4.224-0.416,6.102-1.221c1.876-0.819,3.481-1.928,4.865-3.361c1.378-1.413,2.453-3.076,3.225-5.011
				c0.771-1.915,1.152-3.968,1.152-6.17c0-2.195-0.381-4.258-1.152-6.173c-0.772-1.918-1.847-3.594-3.225-5.03
				c-1.385-1.429-2.989-2.542-4.865-3.364c-1.878-0.812-3.912-1.218-6.102-1.218c-2.207,0-4.243,0.406-6.115,1.218
				c-1.864,0.822-3.501,1.934-4.879,3.364c-1.396,1.436-2.467,3.113-3.25,5.03c-0.789,1.915-1.175,3.978-1.175,6.173
				C721.881,396.162,722.267,398.215,723.056,400.13z"/>
			<path fill="#FFFFFF" d="M777.346,371.019c0-0.33,0.101-0.634,0.294-0.891c0.19-0.267,0.525-0.399,0.977-0.399h20.763
				c2.233,0,4.3,0.436,6.179,1.337c1.875,0.881,3.506,2.063,4.871,3.522c1.362,1.492,2.423,3.182,3.181,5.097
				c0.771,1.915,1.145,3.915,1.145,5.968c0,1.363-0.208,2.7-0.599,4.021c-0.394,1.31-0.959,2.561-1.703,3.723
				c-0.73,1.169-1.609,2.248-2.618,3.225c-1.005,0.974-2.121,1.819-3.349,2.548l8.911,17.664c0.153,0.323,0.153,0.634,0,0.938
				c-0.15,0.304-0.437,0.455-0.85,0.455h-8.436c-0.372,0-0.657-0.073-0.863-0.238c-0.224-0.165-0.441-0.462-0.66-0.924
				l-7.772-15.61h-9.934v15.491c0,0.852-0.442,1.281-1.296,1.281h-6.97c-0.858,0-1.271-0.429-1.271-1.281V371.019z
				 M786.883,377.829v15.277h10.183c1.126,0,2.189-0.192,3.152-0.594c0.981-0.396,1.819-0.937,2.522-1.637
				c0.698-0.687,1.25-1.505,1.656-2.426c0.393-0.934,0.586-1.915,0.586-2.961c0-1.05-0.193-2.027-0.586-2.958
				c-0.406-0.931-0.957-1.743-1.656-2.443c-0.703-0.693-1.541-1.241-2.522-1.64c-0.964-0.413-2.027-0.617-3.152-0.617H786.883z"/>
			<path fill="#FFFFFF" d="M829.286,371.088c0-0.905,0.432-1.36,1.299-1.36h6.904c0.863,0,1.296,0.455,1.296,1.36v45.817
				c0,0.878-0.432,1.32-1.296,1.32h-6.904c-0.866,0-1.299-0.442-1.299-1.32V371.088z"/>
			<path fill="#FFFFFF" d="M855.852,384.246c1.307-3.034,3.086-5.678,5.363-7.936c2.271-2.261,4.912-4.034,7.93-5.331
				c3.035-1.311,6.287-1.971,9.733-1.971c3.443,0,6.68,0.66,9.71,1.971c3.03,1.297,5.665,3.07,7.924,5.331
				c2.232,2.258,4.008,4.902,5.296,7.936c1.296,3.03,1.931,6.275,1.931,9.715c0,3.446-0.635,6.698-1.931,9.715
				c-1.289,3.03-3.065,5.678-5.296,7.922c-2.259,2.251-4.893,4.02-7.924,5.315c-3.03,1.314-6.267,1.961-9.71,1.961
				c-3.446,0-6.698-0.647-9.733-1.961c-3.019-1.294-5.659-3.063-7.93-5.315c-2.276-2.245-4.055-4.892-5.363-7.922
				c-1.309-3.017-1.957-6.269-1.957-9.715C853.894,390.521,854.543,387.276,855.852,384.246z M864.631,400.13
				c0.784,1.934,1.875,3.598,3.253,5.011c1.388,1.433,3.002,2.542,4.876,3.361c1.883,0.805,3.913,1.221,6.118,1.221
				c2.203,0,4.242-0.416,6.1-1.221c1.873-0.819,3.496-1.928,4.874-3.361c1.368-1.413,2.445-3.076,3.212-5.011
				c0.774-1.915,1.162-3.968,1.162-6.17c0-2.195-0.388-4.258-1.162-6.173c-0.767-1.918-1.844-3.594-3.212-5.03
				c-1.378-1.429-3.001-2.542-4.874-3.364c-1.858-0.812-3.897-1.218-6.1-1.218c-2.205,0-4.235,0.406-6.118,1.218
				c-1.873,0.822-3.488,1.934-4.876,3.364c-1.378,1.436-2.469,3.113-3.253,5.03c-0.771,1.915-1.172,3.978-1.172,6.173
				C863.459,396.162,863.86,398.215,864.631,400.13z"/>
			<path fill="#FFFFFF" d="M917.106,409.627c-0.165-0.409-0.017-0.848,0.456-1.304l4.395-4.284c0.267-0.251,0.566-0.38,0.878-0.38
				c0.238,0,0.459,0.069,0.664,0.214c0.221,0.132,0.457,0.304,0.705,0.502c0.69,0.66,1.434,1.32,2.233,2
				c0.797,0.66,1.664,1.271,2.601,1.802c0.924,0.528,1.944,0.97,3.015,1.297c1.079,0.35,2.235,0.518,3.491,0.518
				c1.296,0,2.454-0.168,3.458-0.532c1.033-0.346,1.896-0.828,2.604-1.429c0.703-0.594,1.244-1.288,1.611-2.043
				c0.373-0.756,0.566-1.541,0.566-2.354c0-1.05-0.318-1.928-0.933-2.661c-0.627-0.733-1.41-1.34-2.347-1.815
				c-0.926-0.482-1.915-0.901-2.991-1.215c-1.074-0.32-2.023-0.594-2.893-0.812c-2.644-0.806-4.991-1.674-7.015-2.608
				c-2.012-0.937-3.704-1.997-5.07-3.179c-1.35-1.188-2.382-2.512-3.092-3.988c-0.695-1.469-1.053-3.139-1.053-4.995
				c0-2.033,0.424-3.859,1.268-5.512c0.853-1.654,2.066-3.083,3.608-4.291c1.556-1.179,3.418-2.099,5.574-2.763
				c2.177-0.66,4.585-0.994,7.213-0.994c1.419,0,2.837,0.192,4.23,0.555c1.411,0.357,2.741,0.865,4.037,1.495
				c1.289,0.63,2.535,1.376,3.692,2.228c1.172,0.848,2.231,1.769,3.185,2.746c0.769,0.812,0.756,1.657-0.045,2.508l-3.595,3.677
				c-0.29,0.274-0.593,0.416-0.881,0.416c-0.276,0-0.55-0.086-0.814-0.248c-0.254-0.148-0.523-0.346-0.787-0.584
				c-0.536-0.423-1.127-0.891-1.815-1.416c-0.677-0.518-1.404-1.016-2.205-1.472c-0.799-0.442-1.641-0.828-2.535-1.132
				c-0.901-0.317-1.817-0.468-2.783-0.468c-0.825,0-1.696,0.069-2.604,0.204c-0.881,0.145-1.697,0.403-2.425,0.805
				c-0.718,0.393-1.343,0.937-1.807,1.637c-0.482,0.686-0.718,1.597-0.718,2.74c0,0.895,0.236,1.667,0.705,2.278
				c0.47,0.601,1.115,1.155,1.969,1.621c0.848,0.456,1.862,0.875,3.033,1.211c1.17,0.363,2.438,0.733,3.832,1.119
				c2.189,0.644,4.27,1.39,6.226,2.188c1.957,0.819,3.666,1.789,5.137,2.964c1.482,1.169,2.646,2.562,3.517,4.192
				c0.851,1.611,1.279,3.582,1.279,5.863c0,2.255-0.499,4.291-1.489,6.12c-1.004,1.848-2.342,3.42-4.022,4.733
				c-1.68,1.288-3.609,2.298-5.8,2.998c-2.19,0.7-4.463,1.056-6.833,1.056c-1.696,0-3.38-0.192-5.029-0.575
				c-1.67-0.389-3.253-0.937-4.814-1.637c-1.528-0.7-2.971-1.545-4.336-2.535c-1.367-0.977-2.59-2.086-3.679-3.278
				C917.535,410.429,917.271,410.026,917.106,409.627z"/>
		</g>
	</g>
	</svg>
