[
  {
    "nombre": "Sede San Martín",
    "nombre_lista": "Sede San Martín",
    "color": "primary",
    "color_fondo": "fondo-sede1",
    "thumbnail": "assets/img/sedes/thumbnail/san-martin-th_md.png",
    "slides": [
      "assets/img/sedes/slides/san-martin-img-001_md.jpg",
      "assets/img/sedes/slides/san-martin-img-002_md.jpg",
      "assets/img/sedes/slides/san-martin-img-003_md.jpg"
    ],
    "texto": "En este <b>edificio de más de 1500 m2</b>, dividido en 4 niveles, se lleva a cabo el procesamiento de <b>más de 7000 prácticas de alta complejidad al día</b>, gracias a la utilización de <b>recursos tecnológicos de última generación.</b><br>Es aquí donde desarrollan su actividad los distintos <b>Departamentos de nuestro Laboratorio Clínico Humano:</b> Biología y Genética Molecular; Endocrinología; Hematología; Inmunología; Errores Congénitos del Metabolismo; Microbiología; Química Clínica; Toxicología; Citogenética.",
    "direccion": "San Martín 68",
    "localidad": "Bahía Blanca",
    "coords": {
      "lat": -38.717482,
      "lng": -62.263989
    },
    "telefono": {
      "call": "+542914599999",
      "display": "(0291) 459-9999"
    },
    "horarios": {
      "semana": "7:00 a 19:00hs.",
      "sabado": "7:00 a 12:00hs."
    },
    "link" : "https://www.iaca.com.ar/labo-san-martin.html"
  },
  {
    "nombre": "Sede Rodríguez",
    "nombre_lista": "Sede Rodríguez",
    "color": "azul",
    "color_fondo": "fondo-sede2",
    "thumbnail": "assets/img/sedes/thumbnail/rodriguez-th_md.png",
    "slides": [
      "assets/img/sedes/slides/rodriguez-img-001_md.jpg",
      "assets/img/sedes/slides/rodriguez-img-002_md.jpg",
      "assets/img/sedes/slides/rodriguez-img-003_md.jpg"
    ],
    "texto": "El crecimiento basado en la descentralización nos permite ofrecer mayores comodidades a <b>nuestros pacientes del Laboratorio Clínico Humano</b>.<br>En base a esta premisa es que hemos construido un nuevo y <b>moderno edificio, de más de 500 m2 de superficie cubierta,</b> ubicado en la calle Rodríguez 702.<br>El mismo cuenta con: <b>Amplia sala de espera general, Sala de espera para niños, Sala de espera para embarazadas y Desayunador.</b>",
    "direccion": "Rodríguez 702",
    "localidad": "Bahía Blanca",
    "coords": {
      "lat": -38.709720,
      "lng": -62.259817
    },
    "telefono": {
      "call": "+542914599940",
      "display": "(0291) 459-9940"
    },
    "horarios": {
      "semana": "7:00 a 18:00hs.",
      "sabado": "7:00 a 12:00hs."
    },
    "link" : "https://www.iaca.com.ar/labo-rodriguez.html"
  },
  {
    "nombre": "Sede Darwin",
    "nombre_lista": "Sede Darwin",
    "color": "azul-claro",
    "color_fondo": "fondo-sede3",
    "thumbnail": "assets/img/sedes/thumbnail/darwin-th_md.png",
    "slides": [
      "assets/img/sedes/slides/darwin-img-001_md.jpg",
      "assets/img/sedes/slides/darwin-img-002_md.jpg",
      "assets/img/sedes/slides/darwin-img-003_md.jpg"
    ],
    "texto": "En un moderno <b>edificio de 1600 m2</b> cubiertos, ubicado en la calle Darwin 530, <b>desarrollan su actividad los Laboratorios de Bromatología, Química Industrial y Medio Ambiente, Agronomía, Veterinaria y Bioanalítica.",
    "direccion": "Darwin 530",
    "localidad": "Bahía Blanca",
    "coords": {
      "lat": -38.719456,
      "lng": -62.252655
    },
    "telefono": {
      "call": "+542914599955",
      "display": "(0291) 459-9955"
    },
    "horarios": {
      "semana": "8:00 a 17:00hs.",
      "sabado": "8:00 a 12:00hs."
    },
    "link" : "https://www.iaca.com.ar/labo-darwin.html"
  },
  {
    "nombre": "Sede Buenos Aires",
    "nombre_lista": "Sede Buenos Aires",
    "color": "celeste",
    "color_fondo": "fondo-sede4",
    "thumbnail": "assets/img/sedes/thumbnail/suipacha-th_md.png",
    "slides": [
      "assets/img/sedes/slides/suipacha-img-001_md.jpg",
      "assets/img/sedes/slides/suipacha-img-002_md.jpg",
      "assets/img/sedes/slides/suipacha-img-003_md.jpg"
    ],
    "texto": "Nuestra <b>nueva y moderna sede se emplaza en la calle Suipacha 1322, planta baja \"B\", en la Ciudad Autónoma de Buenos Aires.</b> Afrontando el desafío de abrirnos camino en la ciudad más importante del país, <b>brindamos los mismos servicios de vanguardia que en la ciudad de Bahía Blanca</b>, realizando todo tipo de estudios, cualquiera sea su complejidad.",
    "direccion": "Suipacha 1322 PB. \"B\"",
    "localidad": "C.A.B.A.",
    "coords": {
      "lat": -34.592409,
      "lng": -58.380154
    },
    "telefono": {
      "call": "+541143272602",
      "display": "(011) 4327-2602 / 4326-1806"
    },
    "email": "buenosaires@iaca.com.ar"
  }
]