<!-- Generated by IcoMoon.io -->
<svg version="1.1" xmlns="http://www.w3.org/2000/svg" width="32" height="32" viewBox="0 0 32 32">
<title>email</title>
<path d="M16 0c-0 0-0 0-0 0-8.837 0-16 7.163-16 16s7.163 16 16 16c3.249 0 6.272-0.969 8.796-2.633l-0.060 0.037c0.428-0.281 0.706-0.758 0.706-1.3 0-0.374-0.132-0.717-0.353-0.985l0.002 0.003-0.656-0.802c-0.285-0.349-0.716-0.57-1.199-0.57-0.307 0-0.592 0.089-0.832 0.243l0.006-0.004c-1.814 1.182-4.034 1.884-6.418 1.884-6.557 0-11.872-5.315-11.872-11.872s5.315-11.872 11.872-11.872c0.003 0 0.005 0 0.008 0h-0c6.46 0 11.87 3.717 11.87 10.322 0 2.503-1.36 5.145-3.753 5.399-1.12-0.028-1.092-0.83-0.869-1.938l1.511-7.822c0.018-0.088 0.028-0.19 0.028-0.293 0-0.855-0.693-1.548-1.548-1.548h-2.901c-0.446 0.001-0.814 0.336-0.865 0.769l-0 0.004c-0.894-0.878-2.121-1.42-3.474-1.42-0.139 0-0.276 0.006-0.412 0.017l0.018-0.001c-4.954 0.165-8.907 4.22-8.907 9.199 0 0.204 0.007 0.406 0.020 0.606l-0.001-0.027c0 4.213 2.373 6.83 6.194 6.83 1.963-0.088 3.689-1.029 4.827-2.46l0.010-0.013c0.615 2.201 2.62 2.201 4.562 2.201 7.026 0 9.696-4.622 9.696-9.511-0.004-8.788-7.099-14.443-16.004-14.443zM14.601 19.641c-0.011 0-0.025 0-0.038 0-1.276 0-2.311-1.035-2.311-2.311 0-0.113 0.008-0.224 0.024-0.333l-0.001 0.012c-0.013-0.124-0.020-0.267-0.020-0.412 0-2.201 1.651-4.017 3.782-4.277l0.021-0.002c1.438 0 2.297 0.983 2.297 2.631 0.006 0.090 0.010 0.194 0.010 0.3 0 2.214-1.619 4.050-3.738 4.389l-0.025 0.003z"></path>
</svg>
