<!-- Generated by IcoMoon.io -->
<svg version="1.1" xmlns="http://www.w3.org/2000/svg" width="32" height="32" viewBox="0 0 32 32">
<title>importante</title>
<path d="M32 16c0 8.837-7.163 16-16 16s-16-7.163-16-16c0-8.837 7.163-16 16-16v0c8.837 0 16 7.163 16 16v0zM16 19.226c-1.639 0-2.968 1.329-2.968 2.968s1.329 2.968 2.968 2.968c1.639 0 2.968-1.329 2.968-2.968v0c0-1.639-1.329-2.968-2.968-2.968v0zM13.176 8.559l0.478 8.774c0.023 0.409 0.36 0.732 0.773 0.732 0 0 0.001 0 0.001 0h3.132c0 0 0.001 0 0.001 0 0.413 0 0.75-0.323 0.772-0.73l0-0.002 0.489-8.774c0.001-0.013 0.001-0.028 0.001-0.043 0-0.427-0.346-0.774-0.774-0.774-0 0-0.001 0-0.001 0h-4.094c-0 0-0.001 0-0.001 0-0.427 0-0.774 0.346-0.774 0.774 0 0.015 0 0.030 0.001 0.045l-0-0.002z"></path>
</svg>
