<!-- Generated by IcoMoon.io -->
<svg version="1.1" xmlns="http://www.w3.org/2000/svg" width="32" height="32" viewBox="0 0 32 32">
<title>instagram</title>
<path d="M16.008 7.796c-4.531 0-8.204 3.673-8.204 8.204s3.673 8.204 8.204 8.204c4.531 0 8.204-3.673 8.204-8.204v0c0-0.004 0-0.008 0-0.012 0-4.524-3.668-8.192-8.192-8.192-0.004 0-0.009 0-0.013 0h0.001zM16.008 21.335c-2.946 0-5.333-2.388-5.333-5.333s2.388-5.333 5.333-5.333c2.946 0 5.333 2.388 5.333 5.333v0c-0.006 2.943-2.39 5.327-5.333 5.333h-0.001zM26.461 7.468c0 1.057-0.857 1.914-1.914 1.914s-1.914-0.857-1.914-1.914c0-1.057 0.857-1.914 1.914-1.914v0c0.001 0 0.003 0 0.005 0 1.053 0 1.908 0.853 1.909 1.906v0zM31.895 9.41c0.001-0.058 0.002-0.126 0.002-0.195 0-2.524-0.987-4.817-2.596-6.514l0.004 0.004c-1.702-1.605-4.003-2.592-6.535-2.592-0.060 0-0.12 0.001-0.179 0.002l0.009-0c-2.642-0.152-10.56-0.152-13.202 0-0.053-0.001-0.116-0.002-0.179-0.002-2.522 0-4.815 0.981-6.518 2.582l0.005-0.005c-1.605 1.698-2.592 3.995-2.592 6.522 0 0.064 0.001 0.128 0.002 0.192l-0-0.010c-0.152 2.642-0.152 10.56 0 13.202-0.001 0.058-0.002 0.126-0.002 0.195 0 2.524 0.987 4.817 2.596 6.514l-0.004-0.004c1.704 1.605 4.006 2.592 6.539 2.592 0.058 0 0.116-0.001 0.174-0.002l-0.009 0c2.642 0.152 10.56 0.152 13.202 0 0.058 0.001 0.126 0.002 0.195 0.002 2.524 0 4.817-0.987 6.514-2.596l-0.004 0.004c1.605-1.702 2.592-4.003 2.592-6.535 0-0.060-0.001-0.12-0.002-0.179l0 0.009c0.137-2.641 0.137-10.552-0.012-13.187zM28.482 25.44c-0.561 1.399-1.649 2.487-3.011 3.035l-0.036 0.013c-2.106 0.835-7.106 0.643-9.432 0.643s-7.333 0.186-9.432-0.643c-1.399-0.561-2.487-1.649-3.035-3.011l-0.013-0.036c-0.835-2.106-0.643-7.106-0.643-9.432s-0.186-7.333 0.643-9.432c0.561-1.399 1.649-2.487 3.011-3.035l0.036-0.013c2.106-0.835 7.104-0.643 9.432-0.643s7.333-0.186 9.432 0.643c1.399 0.561 2.487 1.649 3.035 3.011l0.013 0.036c0.835 2.106 0.643 7.104 0.643 9.432s0.192 7.325-0.643 9.425z"></path>
</svg>
