<!-- Generated by IcoMoon.io -->
<svg version="1.1" xmlns="http://www.w3.org/2000/svg" width="32" height="32" viewBox="0 0 32 32">
<title>news</title>
<path fill="#5ec5ec" opacity="0.98" d="M2.286 22.566l0 0.24 13.668 6.654 13.76-6.657v-20.517h-27.429v20.28zM0 22.568v-22.568h32v24.236l-16.049 7.764-15.95-7.764-0.002-1.668z"></path>
<path fill="#5ec5ec" opacity="0.98" d="M12.803 19.394c0 1.132-0.918 2.049-2.049 2.049s-2.049-0.918-2.049-2.049c0-1.132 0.918-2.049 2.049-2.049v0c1.132 0 2.049 0.918 2.049 2.049v0zM18.424 20.906c-0.28-4.955-4.228-8.902-9.157-9.182l-0.026-0.001c-0.008-0-0.017-0.001-0.026-0.001-0.282 0-0.511 0.229-0.512 0.511v1.538c0 0 0 0.001 0 0.002 0 0.27 0.209 0.492 0.475 0.511l0.002 0c3.587 0.245 6.436 3.094 6.68 6.659l0.001 0.022c0.019 0.267 0.241 0.476 0.511 0.476 0.001 0 0.001 0 0.002 0h1.538c0 0 0 0 0.001 0 0.283 0 0.512-0.229 0.512-0.512 0-0.009-0-0.017-0.001-0.026l0 0.001zM23.040 20.916c-0.285-7.508-6.299-13.523-13.781-13.807l-0.027-0.001c-0.005-0-0.011-0-0.016-0-0.283 0-0.512 0.229-0.512 0.512 0 0 0 0.001 0 0.001v-0 1.538c0.001 0.276 0.22 0.501 0.493 0.512l0.001 0c6.121 0.262 11.017 5.158 11.278 11.254l0.001 0.024c0.011 0.274 0.236 0.493 0.512 0.493h1.538c0.282-0 0.511-0.229 0.511-0.512 0-0.005-0-0.011-0-0.016l0 0.001z"></path>
</svg>
