<!-- Generated by IcoMoon.io -->
<svg version="1.1" xmlns="http://www.w3.org/2000/svg" width="43" height="32" viewBox="0 0 43 32">
<title>password-input</title>
<path fill="#000" d="M30.079 32h-30.079v-32h32.302l10.349 16.049-10.349 15.95z"></path>
<path fill="#fff" d="M25.863 18.418c-0.081-0.324-0.289-0.589-0.567-0.744l-0.006-0.003-2.562-1.486 2.562-1.483c0.284-0.157 0.493-0.422 0.572-0.739l0.002-0.008c0.028-0.098 0.045-0.211 0.045-0.327 0-0.226-0.061-0.437-0.169-0.618l0.003 0.006-0.617-1.059c-0.157-0.284-0.422-0.493-0.739-0.572l-0.008-0.002c-0.098-0.028-0.211-0.045-0.327-0.045-0.226 0-0.437 0.062-0.618 0.169l0.006-0.003-2.561 1.473v-2.957c0-0.003 0-0.007 0-0.011 0-0.336-0.14-0.64-0.365-0.855l-0-0c-0.216-0.226-0.52-0.366-0.856-0.366-0.004 0-0.008 0-0.012 0h-1.232c-0.003-0-0.006-0-0.010-0-0.337 0-0.64 0.14-0.856 0.366l-0 0c-0.226 0.216-0.366 0.52-0.366 0.856 0 0.004 0 0.007 0 0.011v-0.001 2.957l-2.562-1.473c-0.175-0.103-0.384-0.164-0.609-0.164-0.118 0-0.232 0.017-0.339 0.048l0.009-0.002c-0.324 0.081-0.589 0.289-0.744 0.567l-0.003 0.006-0.614 1.057c-0.104 0.175-0.166 0.387-0.166 0.612 0 0.116 0.016 0.229 0.047 0.336l-0.002-0.009c0.081 0.324 0.289 0.589 0.567 0.744l0.006 0.003 2.562 1.483-2.564 1.483c-0.284 0.157-0.493 0.422-0.572 0.739l-0.002 0.008c-0.028 0.098-0.045 0.21-0.045 0.326 0 0.226 0.061 0.437 0.169 0.618l-0.003-0.006 0.617 1.059c0.157 0.284 0.422 0.493 0.739 0.572l0.008 0.002c0.098 0.028 0.211 0.045 0.327 0.045 0.226 0 0.437-0.061 0.618-0.169l-0.006 0.003 2.562-1.473v2.957c0.010 0.677 0.556 1.223 1.232 1.233h1.234c0.676-0.010 1.222-0.556 1.232-1.231v-2.958l2.562 1.47c0.175 0.104 0.387 0.166 0.612 0.166 0.116 0 0.229-0.016 0.335-0.047l-0.009 0.002c0.324-0.080 0.589-0.289 0.744-0.567l0.003-0.006 0.617-1.059c0.103-0.175 0.164-0.385 0.164-0.61 0-0.115-0.016-0.227-0.046-0.333l0.002 0.009z"></path>
</svg>
