<!-- Generated by IcoMoon.io -->
<svg version="1.1" xmlns="http://www.w3.org/2000/svg" width="32" height="32" viewBox="0 0 32 32">
<title>profesionales</title>
<path fill="#0085cb" d="M2.286 22.566l0 0.24 13.668 6.654 13.76-6.657v-20.517h-27.429v20.28zM0 22.568v-22.568h32v24.236l-16.049 7.764-15.95-7.764-0.002-1.668z"></path>
<path fill="#0085cb" d="M16 14.276c1.979 0 3.584-1.605 3.584-3.584s-1.605-3.584-3.584-3.584c-1.979 0-3.584 1.605-3.584 3.584v0c0 0 0 0 0 0 0 1.979 1.604 3.584 3.584 3.584 0 0 0 0 0 0h-0zM12.64 18.98c0 0.371 0.301 0.672 0.672 0.672s0.672-0.301 0.672-0.672c0-0.371-0.301-0.672-0.672-0.672v0c-0.001 0-0.001 0-0.002 0-0.37 0-0.67 0.3-0.67 0.67 0 0.001 0 0.001 0 0.002v-0zM18.688 15.188v1.371c1.029 0.217 1.791 1.117 1.792 2.195v1.168c-0.001 0.216-0.154 0.397-0.358 0.439l-0.003 0-0.902 0.179c-0.013 0.003-0.029 0.004-0.044 0.004-0.108 0-0.198-0.077-0.219-0.179l-0-0.001-0.087-0.439c-0.003-0.014-0.005-0.029-0.005-0.046 0-0.108 0.077-0.198 0.18-0.217l0.001-0 0.54-0.109v-0.798c0-1.758-2.688-1.823-2.688 0.053v0.748l0.54 0.109c0.104 0.023 0.18 0.114 0.18 0.223 0 0.014-0.001 0.028-0.004 0.041l0-0.001-0.087 0.439c-0.023 0.104-0.114 0.18-0.223 0.18-0.014 0-0.028-0.001-0.041-0.004l0.001 0-0.873-0.118c-0.219-0.031-0.386-0.218-0.386-0.443 0-0.001 0-0.001 0-0.002v0-1.226c0.002-1.078 0.762-1.977 1.776-2.193l0.015-0.003v-1.266c-0.062 0.020-0.123 0.031-0.185 0.053-0.479 0.174-1.031 0.274-1.607 0.274s-1.129-0.101-1.641-0.285l0.034 0.011c-0.182-0.065-0.396-0.116-0.618-0.144l-0.015-0.002v2.286c0.653 0.199 1.119 0.796 1.119 1.502 0 0.866-0.702 1.567-1.567 1.567s-1.567-0.702-1.567-1.567c0-0.706 0.467-1.303 1.108-1.499l0.011-0.003v-2.252c-1.79 0.307-3.135 1.845-3.137 3.699v1.255c0.002 0.692 0.563 1.252 1.254 1.253h10.035c0.693-0.001 1.254-0.562 1.255-1.254v-1.253c-0.004-2.011-1.587-3.651-3.575-3.746l-0.009-0z"></path>
</svg>
