<!-- Generated by IcoMoon.io -->
<svg version="1.1" xmlns="http://www.w3.org/2000/svg" width="43" height="32" viewBox="0 0 43 32">
<title>resultado-en-proceso</title>
<path fill="#f1f3f5" d="M12.572 0h30.079v32h-32.302l-10.348-16.049 10.348-15.95z"></path>
<path fill="#004a7f" d="M31.199 7.642h-10.533c-0.415 0-0.752 0.337-0.752 0.752v0 0.501c0 0.415 0.337 0.752 0.752 0.752v0c0 2.851 1.599 5.258 3.788 6.018-2.188 0.765-3.788 3.168-3.788 6.019-0.415 0-0.752 0.337-0.752 0.752v0 0.501c0 0 0 0 0 0.001 0 0.415 0.337 0.752 0.752 0.752 0 0 0 0 0 0h10.533c0.415 0 0.752-0.337 0.752-0.752v0-0.501c0-0.415-0.337-0.752-0.752-0.752v0c0-2.851-1.599-5.258-3.788-6.018 2.189-0.764 3.788-3.167 3.788-6.018 0.415 0 0.752-0.337 0.752-0.752v0-0.503c0-0.415-0.337-0.752-0.752-0.752v0zM28.845 19.679h-5.825c0.535-1.467 1.633-2.507 2.913-2.507s2.378 1.040 2.913 2.507zM28.845 11.655h-5.825c-0.22-0.592-0.347-1.277-0.347-1.991 0-0.005 0-0.011 0-0.016v0.001h6.52c0 0.005 0 0.010 0 0.015 0 0.714-0.127 1.398-0.36 2.032l0.013-0.041z"></path>
</svg>
