<!-- Generated by IcoMoon.io -->
<svg version="1.1" xmlns="http://www.w3.org/2000/svg" width="48" height="32" viewBox="0 0 48 32">
<title>sedes-bullet</title>
<path d="M33.851 32h-33.851v-32h36.343l11.657 16.050-11.657 15.95z"></path>
</svg>
