<!-- Generated by IcoMoon.io -->
<svg version="1.1" xmlns="http://www.w3.org/2000/svg" width="43" height="32" viewBox="0 0 43 32">
<title>user-input</title>
<path fill="#000" d="M30.079 31.999h-30.079v-31.999h32.301l10.348 16.049-10.348 15.949z"></path>
<path fill="#fff" d="M19.084 15.122c0.017 0 0.036 0 0.056 0 1.015 0 1.932-0.42 2.587-1.095l0.001-0.001c0.676-0.656 1.096-1.573 1.096-2.588 0-0.020-0-0.039-0-0.059l0 0.003c0-0.017 0-0.036 0-0.056 0-1.015-0.42-1.933-1.095-2.588l-0.001-0.001c-0.677-0.677-1.612-1.096-2.645-1.096s-1.968 0.419-2.645 1.096v0c-0.676 0.656-1.096 1.573-1.096 2.588 0 0.020 0 0.039 0 0.059l-0-0.003c-0 0.017-0 0.036-0 0.056 0 1.015 0.42 1.932 1.095 2.587l0.001 0.001c0.656 0.676 1.573 1.096 2.589 1.096 0.020 0 0.040-0 0.059-0l-0.003 0z"></path>
<path fill="#fff" d="M25.907 19.072c-0.030-0.403-0.078-0.767-0.146-1.123l0.010 0.062c-0.073-0.414-0.163-0.77-0.275-1.115l0.016 0.058c-0.119-0.365-0.261-0.679-0.432-0.974l0.013 0.024c-0.17-0.302-0.37-0.561-0.603-0.788l-0.001-0.001c-0.233-0.219-0.51-0.396-0.815-0.515l-0.017-0.006c-0.312-0.123-0.673-0.195-1.051-0.195-0.012 0-0.025 0-0.037 0l0.002-0c-0.157 0.046-0.293 0.118-0.411 0.211l0.002-0.002q-0.321 0.209-0.725 0.468c-0.302 0.186-0.651 0.344-1.019 0.458l-0.033 0.009c-0.388 0.133-0.835 0.209-1.299 0.209s-0.911-0.077-1.328-0.218l0.029 0.009c-0.401-0.122-0.749-0.281-1.072-0.478l0.020 0.011q-0.404-0.258-0.725-0.468c-0.116-0.092-0.252-0.164-0.4-0.207l-0.008-0.002c-0.011-0-0.023-0-0.035-0-0.378 0-0.739 0.072-1.070 0.202l0.020-0.007c-0.323 0.125-0.6 0.302-0.834 0.522l0.001-0.001c-0.233 0.227-0.434 0.487-0.595 0.772l-0.009 0.017c-0.158 0.271-0.3 0.585-0.409 0.914l-0.010 0.035c-0.095 0.287-0.185 0.643-0.251 1.007l-0.008 0.050c-0.058 0.295-0.106 0.659-0.135 1.028l-0.002 0.034q-0.034 0.492-0.034 1.008c-0.002 0.038-0.003 0.082-0.003 0.126 0 0.672 0.273 1.28 0.714 1.72l0 0c0.464 0.421 1.084 0.679 1.763 0.679 0.045 0 0.089-0.001 0.133-0.003l-0.006 0h8.509c0.038 0.002 0.082 0.003 0.127 0.003 0.68 0 1.299-0.258 1.765-0.681l-0.002 0.002c0.442-0.439 0.715-1.048 0.715-1.72 0-0.044-0.001-0.088-0.004-0.132l0 0.006q-0.001-0.516-0.035-1.008z"></path>
</svg>
