<!-- Generated by IcoMoon.io -->
<svg version="1.1" xmlns="http://www.w3.org/2000/svg" width="32" height="32" viewBox="0 0 32 32">
<title>whatsapp</title>
<path d="M27.208 4.651c-2.869-2.863-6.83-4.634-11.204-4.634-8.761 0-15.863 7.102-15.863 15.863 0 2.91 0.783 5.636 2.151 7.981l-0.041-0.075-2.251 8.215 8.407-2.206c2.186 1.214 4.793 1.929 7.568 1.929 0.003 0 0.007 0 0.010 0h-0.001c0.075 0.001 0.163 0.002 0.252 0.002 8.702 0 15.756-7.054 15.756-15.756 0-4.439-1.836-8.45-4.79-11.314l-0.004-0.004zM16 29.050c-0.007 0-0.015 0-0.023 0-2.468 0-4.777-0.68-6.751-1.862l0.060 0.033-0.478-0.285-4.998 1.3 1.329-4.864-0.314-0.5c-1.204-1.953-1.918-4.32-1.918-6.853 0-7.293 5.912-13.205 13.205-13.205 7.238 0 13.116 5.823 13.204 13.041l0 0.008c-0.079 7.296-6.010 13.181-13.316 13.187h-0.001zM23.229 19.179c-0.393-0.2-2.342-1.157-2.708-1.286s-0.629-0.2-0.893 0.2-1.021 1.286-1.257 1.557-0.457 0.305-0.856 0.101c-2.314-0.938-4.18-2.582-5.373-4.662l-0.028-0.053c-0.407-0.699 0.407-0.651 1.164-2.164 0.044-0.092 0.070-0.2 0.070-0.314 0-0.14-0.039-0.271-0.107-0.383l0.002 0.003c-0.101-0.2-0.893-2.15-1.219-2.942s-0.651-0.664-0.893-0.678-0.492-0.014-0.762-0.014c-0.421 0.012-0.796 0.199-1.056 0.491l-0.001 0.001c-0.856 0.813-1.389 1.96-1.389 3.231 0 0.027 0 0.053 0.001 0.080l-0-0.004c0.14 1.565 0.726 2.971 1.626 4.117l-0.013-0.017c1.712 2.539 3.995 4.57 6.672 5.939l0.1 0.046c1.114 0.656 2.454 1.043 3.884 1.043 0.308 0 0.611-0.018 0.91-0.053l-0.036 0.003c1.141-0.237 2.087-0.926 2.661-1.867l0.010-0.018c0.175-0.39 0.276-0.846 0.276-1.325 0-0.198-0.017-0.392-0.051-0.58l0.003 0.020c-0.088-0.181-0.347-0.28-0.745-0.474z"></path>
</svg>
